module bitbucket.org/quicklizard/rabbitmq-manager

go 1.16

require (
	github.com/davecgh/go-spew v1.1.1 // indirect
	github.com/streadway/amqp v1.0.0 // indirect
	github.com/stretchr/testify v1.7.0 // indirect
	gopkg.in/yaml.v3 v3.0.0-20210107192922-496545a6307b // indirect
)
